<svg viewBox="0 0 6.36 9" xmlns="http://www.w3.org/2000/svg">
    <path d="M26.15,29.83a.52.52,0,0,1-.29-.09L20.5,26a.49.49,0,0,1-.21-.4.51.51,0,0,1,.19-.4l5.36-4.23a.5.5,0,0,1,.62.79l-4.83,3.81,4.81,3.39a.5.5,0,0,1,.12.7A.52.52,0,0,1,26.15,29.83Z"
          transform="translate(-20.29 -20.83)"/>
</svg>
